{"failedCount":0,"prefixedPath":"src\/test\/java\/users\/get\/user-get.feature","packageQualifiedName":"src.test.java.users.get.user-get","loopIndex":-1,"relativePath":"src\/test\/java\/users\/get\/user-get.feature","scenarioResults":[{"sectionIndex":1,"stepResults":[{"result":{"nanos":282913899,"millis":282.913899,"status":"passed"},"step":{"line":9,"prefix":"*","index":0,"text":"def jsonResponse = read(\"..\/json\/user_list.json\")"}},{"result":{"nanos":1572100,"millis":1.5721,"status":"passed"},"step":{"line":10,"prefix":"Given","index":1,"text":"url \"https:\/\/reqres.in\/api\/users?page=1\""}},{"result":{"nanos":839916199,"millis":839.916199,"status":"passed"},"step":{"line":11,"prefix":"When","index":2,"text":"method get"},"stepLog":"23:56:54.275 request:\n1 > GET https:\/\/reqres.in\/api\/users?page=1\n1 > Host: reqres.in\n1 > Connection: Keep-Alive\n1 > User-Agent: Apache-HttpClient\/4.5.13 (Java\/17.0.9)\n1 > Accept-Encoding: gzip,deflate\n\n\n23:56:54.851 response time in milliseconds: 571\n1 < 200\n1 < Date: Sat, 03 Feb 2024 04:56:54 GMT\n1 < Content-Type: application\/json; charset=utf-8\n1 < Transfer-Encoding: chunked\n1 < Connection: keep-alive\n1 < Report-To: {\"group\":\"heroku-nel\",\"max_age\":3600,\"endpoints\":[{\"url\":\"https:\/\/nel.heroku.com\/reports?ts=1706884320&sid=c4c9725f-1ab0-44d8-820f-430df2718e11&s=pfjG%2Fzbeumdhno75US3uEzUIdBwR7mzxfXJ%2B74CFwa4%3D\"}]}\n1 < Reporting-Endpoints: heroku-nel=https:\/\/nel.heroku.com\/reports?ts=1706884320&sid=c4c9725f-1ab0-44d8-820f-430df2718e11&s=pfjG%2Fzbeumdhno75US3uEzUIdBwR7mzxfXJ%2B74CFwa4%3D\n1 < Nel: {\"report_to\":\"heroku-nel\",\"max_age\":3600,\"success_fraction\":0.005,\"failure_fraction\":0.05,\"response_headers\":[\"Via\"]}\n1 < X-Powered-By: Express\n1 < Access-Control-Allow-Origin: *\n1 < Etag: W\/\"3e4-2RLXvr5wTg9YQ6aH95CkYoFNuO8\"\n1 < Via: 1.1 vegur\n1 < Cache-Control: max-age=14400\n1 < CF-Cache-Status: HIT\n1 < Age: 4666\n1 < Vary: Accept-Encoding\n1 < Server: cloudflare\n1 < CF-RAY: 84f8170b4d4c8dd8-MIA\n{\"page\":1,\"per_page\":6,\"total\":12,\"total_pages\":2,\"data\":[{\"id\":1,\"email\":\"george.bluth@reqres.in\",\"first_name\":\"George\",\"last_name\":\"Bluth\",\"avatar\":\"https:\/\/reqres.in\/img\/faces\/1-image.jpg\"},{\"id\":2,\"email\":\"janet.weaver@reqres.in\",\"first_name\":\"Janet\",\"last_name\":\"Weaver\",\"avatar\":\"https:\/\/reqres.in\/img\/faces\/2-image.jpg\"},{\"id\":3,\"email\":\"emma.wong@reqres.in\",\"first_name\":\"Emma\",\"last_name\":\"Wong\",\"avatar\":\"https:\/\/reqres.in\/img\/faces\/3-image.jpg\"},{\"id\":4,\"email\":\"eve.holt@reqres.in\",\"first_name\":\"Eve\",\"last_name\":\"Holt\",\"avatar\":\"https:\/\/reqres.in\/img\/faces\/4-image.jpg\"},{\"id\":5,\"email\":\"charles.morris@reqres.in\",\"first_name\":\"Charles\",\"last_name\":\"Morris\",\"avatar\":\"https:\/\/reqres.in\/img\/faces\/5-image.jpg\"},{\"id\":6,\"email\":\"tracey.ramos@reqres.in\",\"first_name\":\"Tracey\",\"last_name\":\"Ramos\",\"avatar\":\"https:\/\/reqres.in\/img\/faces\/6-image.jpg\"}],\"support\":{\"url\":\"https:\/\/reqres.in\/#support-heading\",\"text\":\"To keep ReqRes free, contributions towards server costs are appreciated!\"}}\n\n"},{"result":{"nanos":23700,"millis":0.0237,"status":"passed"},"step":{"line":12,"prefix":"Then","index":3,"text":"status 200"}},{"result":{"nanos":59200400,"millis":59.2004,"status":"passed"},"step":{"line":13,"prefix":"And","index":4,"text":"match $ == {\"page\":1,\"per_page\":6,\"total\":12,\"total_pages\":2,\"data\":[{\"id\":1,\"email\":\"george.bluth@reqres.in\",\"first_name\":\"George\",\"last_name\":\"Bluth\",\"avatar\":\"https:\/\/reqres.in\/img\/faces\/1-image.jpg\"},{\"id\":2,\"email\":\"janet.weaver@reqres.in\",\"first_name\":\"Janet\",\"last_name\":\"Weaver\",\"avatar\":\"https:\/\/reqres.in\/img\/faces\/2-image.jpg\"},{\"id\":3,\"email\":\"emma.wong@reqres.in\",\"first_name\":\"Emma\",\"last_name\":\"Wong\",\"avatar\":\"https:\/\/reqres.in\/img\/faces\/3-image.jpg\"},{\"id\":4,\"email\":\"eve.holt@reqres.in\",\"first_name\":\"Eve\",\"last_name\":\"Holt\",\"avatar\":\"https:\/\/reqres.in\/img\/faces\/4-image.jpg\"},{\"id\":5,\"email\":\"charles.morris@reqres.in\",\"first_name\":\"Charles\",\"last_name\":\"Morris\",\"avatar\":\"https:\/\/reqres.in\/img\/faces\/5-image.jpg\"},{\"id\":6,\"email\":\"tracey.ramos@reqres.in\",\"first_name\":\"Tracey\",\"last_name\":\"Ramos\",\"avatar\":\"https:\/\/reqres.in\/img\/faces\/6-image.jpg\"}],\"support\":{\"url\":\"https:\/\/reqres.in\/#support-heading\",\"text\":\"To keep ReqRes free, contributions towards server costs are appreciated!\"}}"}},{"result":{"nanos":903600,"millis":0.9036,"status":"passed"},"step":{"line":14,"prefix":"And","index":5,"text":"match $ == jsonResponse"}},{"result":{"nanos":4708700,"millis":4.7087,"status":"passed"},"step":{"line":15,"prefix":"And","index":6,"text":"match $ == read(\"..\/json\/user_list.json\")"}}],"executorName":"main","line":8,"name":"Get a list of users","description":"","durationMillis":1189.238598,"startTime":1706936213694,"failed":false,"refId":"[2:8]","endTime":1706936214932,"exampleIndex":-1}],"callDepth":0,"name":"Get user on reqres","description":"","resultDate":"2024-02-02 11:56:54 p. m.","durationMillis":1189.238598,"passedCount":1}